      {
        "template" : {
          "settings" : {
            "index" : {
              "analysis" : {
                "normalizer" : {
                  "lowerascii" : {
                    "filter" : [
                      "lowercase",
                      "asciifolding"
                    ],
                    "type" : "custom"
                  }
                }
              }
            }
          },
          "mappings" : {
            "_meta" : {
              "beat" : "winlogbeat",
              "description" : "list of field used for hunting"
            },
            "dynamic_templates" : [
              {
                "winlog.event_data" : {
                  "path_match" : "winlog.event_data.*",
                  "mapping" : {
                    "normalizer" : "lowerascii",
                    "type" : "keyword"
                  },
                  "match_mapping_type" : "string"
                }
              },
              {
                "winlog.user_data" : {
                  "path_match" : "winlog.user_data.*",
                  "mapping" : {
                    "normalizer" : "lowerascii",
                    "type" : "keyword"
                  },
                  "match_mapping_type" : "string"
                }
              },
              {
                "strings_as_keyword" : {
                  "mapping" : {
                    "normalizer" : "lowerascii",
                    "ignore_above" : 10240,
                    "type" : "keyword"
                  },
                  "match_mapping_type" : "string"
                }
              }
            ],
            "properties" : {
              "registry" : {
                "type" : "object",
                "properties" : {
                  "hive" : {
                    "normalizer" : "lowerascii",
                    "ignore_above" : 1024,
                    "type" : "keyword"
                  },
                  "path" : {
                    "normalizer" : "lowerascii",
                    "ignore_above" : 1024,
                    "type" : "keyword"
                  },
                  "event_type" : {
                    "eager_global_ordinals" : false,
                    "normalizer" : "lowerascii",
                    "norms" : false,
                    "index" : true,
                    "store" : false,
                    "type" : "keyword",
                    "split_queries_on_whitespace" : false,
                    "index_options" : "docs",
                    "doc_values" : true
                  },
                  "key_details" : {
                    "eager_global_ordinals" : false,
                    "normalizer" : "lowerascii",
                    "norms" : false,
                    "index" : true,
                    "store" : false,
                    "type" : "keyword",
                    "split_queries_on_whitespace" : false,
                    "index_options" : "docs",
                    "doc_values" : true
                  },
                  "data" : {
                    "type" : "object",
                    "properties" : {
                      "strings" : {
                        "normalizer" : "lowerascii",
                        "ignore_above" : 1024,
                        "type" : "keyword"
                      },
                      "type" : {
                        "ignore_above" : 1024,
                        "type" : "keyword"
                      }
                    }
                  },
                  "value" : {
                    "normalizer" : "lowerascii",
                    "ignore_above" : 1024,
                    "type" : "keyword"
                  },
                  "key" : {
                    "normalizer" : "lowerascii",
                    "ignore_above" : 1024,
                    "type" : "keyword"
                  }
                }
              },
              "process" : {
                "type" : "object",
                "properties" : {
                  "parent" : {
                    "type" : "object",
                    "properties" : {
                      "args" : {
                        "normalizer" : "lowerascii",
                        "ignore_above" : 1024,
                        "type" : "keyword"
                      },
                      "code_signature" : {
                        "type" : "object",
                        "properties" : {
                          "subject_name" : {
                            "normalizer" : "lowerascii",
                            "ignore_above" : 1024,
                            "type" : "keyword"
                          },
                          "status" : {
                            "normalizer" : "lowerascii",
                            "ignore_above" : 1024,
                            "type" : "keyword"
                          }
                        }
                      },
                      "pe" : {
                        "type" : "object",
                        "properties" : {
                          "file_version" : {
                            "normalizer" : "lowerascii",
                            "ignore_above" : 1024,
                            "type" : "keyword"
                          },
                          "product" : {
                            "normalizer" : "lowerascii",
                            "ignore_above" : 1024,
                            "type" : "keyword"
                          },
                          "imphash" : {
                            "normalizer" : "lowerascii",
                            "ignore_above" : 1024,
                            "type" : "keyword"
                          },
                          "description" : {
                            "normalizer" : "lowerascii",
                            "ignore_above" : 1024,
                            "type" : "keyword"
                          },
                          "company" : {
                            "normalizer" : "lowerascii",
                            "ignore_above" : 1024,
                            "type" : "keyword"
                          },
                          "original_file_name" : {
                            "normalizer" : "lowerascii",
                            "ignore_above" : 1024,
                            "type" : "keyword"
                          }
                        }
                      },
                      "name" : {
                        "normalizer" : "lowerascii",
                        "ignore_above" : 1024,
                        "type" : "keyword",
                        "fields" : {
                          "text" : {
                            "norms" : false,
                            "type" : "text"
                          }
                        }
                      },
                      "working_directory" : {
                        "normalizer" : "lowerascii",
                        "ignore_above" : 1024,
                        "type" : "keyword",
                        "fields" : {
                          "text" : {
                            "norms" : false,
                            "type" : "text"
                          }
                        }
                      },
                      "thread" : {
                        "type" : "object",
                        "properties" : {
                          "name" : {
                            "normalizer" : "lowerascii",
                            "ignore_above" : 1024,
                            "type" : "keyword"
                          }
                        }
                      },
                      "title" : {
                        "normalizer" : "lowerascii",
                        "ignore_above" : 1024,
                        "type" : "keyword",
                        "fields" : {
                          "text" : {
                            "norms" : false,
                            "type" : "text"
                          }
                        }
                      },
                      "command_line" : {
                        "normalizer" : "lowerascii",
                        "ignore_above" : 10240,
                        "type" : "keyword",
                        "fields" : {
                          "text" : {
                            "norms" : false,
                            "type" : "text"
                          }
                        }
                      },
                      "executable" : {
                        "normalizer" : "lowerascii",
                        "ignore_above" : 1024,
                        "type" : "keyword",
                        "fields" : {
                          "text" : {
                            "norms" : false,
                            "type" : "text"
                          }
                        }
                      },
                      "hash" : {
                        "type" : "object",
                        "properties" : {
                          "sha1" : {
                            "normalizer" : "lowerascii",
                            "ignore_above" : 1024,
                            "type" : "keyword"
                          },
                          "sha256" : {
                            "normalizer" : "lowerascii",
                            "ignore_above" : 1024,
                            "type" : "keyword"
                          },
                          "sha512" : {
                            "normalizer" : "lowerascii",
                            "ignore_above" : 1024,
                            "type" : "keyword"
                          },
                          "md5" : {
                            "normalizer" : "lowerascii",
                            "ignore_above" : 1024,
                            "type" : "keyword"
                          }
                        }
                      }
                    }
                  },
                  "working_directory" : {
                    "normalizer" : "lowerascii",
                    "ignore_above" : 1024,
                    "type" : "keyword",
                    "fields" : {
                      "text" : {
                        "norms" : false,
                        "type" : "text"
                      }
                    }
                  },
                  "thread" : {
                    "type" : "object",
                    "properties" : {
                      "name" : {
                        "normalizer" : "lowerascii",
                        "ignore_above" : 1024,
                        "type" : "keyword"
                      }
                    }
                  },
                  "title" : {
                    "ignore_above" : 1024,
                    "type" : "keyword",
                    "fields" : {
                      "text" : {
                        "norms" : false,
                        "type" : "text"
                      }
                    }
                  },
                  "call_trace" : {
                    "eager_global_ordinals" : false,
                    "normalizer" : "lowerascii",
                    "norms" : false,
                    "index" : true,
                    "store" : false,
                    "type" : "keyword",
                    "split_queries_on_whitespace" : false,
                    "index_options" : "docs",
                    "doc_values" : true
                  },
                  "executable" : {
                    "normalizer" : "lowerascii",
                    "ignore_above" : 1024,
                    "type" : "keyword",
                    "fields" : {
                      "text" : {
                        "norms" : false,
                        "type" : "text"
                      }
                    }
                  },
                  "args" : {
                    "eager_global_ordinals" : false,
                    "normalizer" : "lowerascii",
                    "norms" : false,
                    "ignore_above" : 10240,
                    "index" : true,
                    "store" : false,
                    "type" : "keyword",
                    "split_queries_on_whitespace" : false,
                    "index_options" : "docs",
                    "doc_values" : true
                  },
                  "integrity_level" : {
                    "eager_global_ordinals" : false,
                    "normalizer" : "lowerascii",
                    "norms" : false,
                    "index" : true,
                    "store" : false,
                    "type" : "keyword",
                    "split_queries_on_whitespace" : false,
                    "index_options" : "docs",
                    "doc_values" : true
                  },
                  "code_signature" : {
                    "type" : "object",
                    "properties" : {
                      "subject_name" : {
                        "normalizer" : "lowerascii",
                        "ignore_above" : 1024,
                        "type" : "keyword"
                      },
                      "exists" : {
                        "type" : "boolean"
                      },
                      "status" : {
                        "normalizer" : "lowerascii",
                        "ignore_above" : 1024,
                        "type" : "keyword"
                      }
                    }
                  },
                  "granted_access" : {
                    "eager_global_ordinals" : false,
                    "normalizer" : "lowerascii",
                    "norms" : false,
                    "index" : true,
                    "store" : false,
                    "type" : "keyword",
                    "split_queries_on_whitespace" : false,
                    "index_options" : "docs",
                    "doc_values" : true
                  },
                  "pe" : {
                    "type" : "object",
                    "properties" : {
                      "file_version" : {
                        "normalizer" : "lowerascii",
                        "ignore_above" : 1024,
                        "type" : "keyword"
                      },
                      "product" : {
                        "normalizer" : "lowerascii",
                        "ignore_above" : 1024,
                        "type" : "keyword"
                      },
                      "imphash" : {
                        "normalizer" : "lowerascii",
                        "ignore_above" : 10240,
                        "type" : "keyword"
                      },
                      "description" : {
                        "normalizer" : "lowerascii",
                        "ignore_above" : 1024,
                        "type" : "keyword"
                      },
                      "company" : {
                        "normalizer" : "lowerascii",
                        "ignore_above" : 1024,
                        "type" : "keyword"
                      },
                      "original_file_name" : {
                        "normalizer" : "lowerascii",
                        "ignore_above" : 1024,
                        "type" : "keyword"
                      }
                    }
                  },
                  "name" : {
                    "normalizer" : "lowerascii",
                    "ignore_above" : 1024,
                    "type" : "keyword",
                    "fields" : {
                      "text" : {
                        "norms" : false,
                        "type" : "text"
                      }
                    }
                  },
                  "command_line" : {
                    "normalizer" : "lowerascii",
                    "ignore_above" : 10240,
                    "type" : "keyword",
                    "fields" : {
                      "text" : {
                        "norms" : false,
                        "type" : "text"
                      }
                    }
                  },
                  "hash" : {
                    "type" : "object",
                    "properties" : {
                      "sha1" : {
                        "normalizer" : "lowerascii",
                        "ignore_above" : 10240,
                        "type" : "keyword"
                      },
                      "sha256" : {
                        "normalizer" : "lowerascii",
                        "ignore_above" : 10240,
                        "type" : "keyword"
                      },
                      "sha512" : {
                        "normalizer" : "lowerascii",
                        "ignore_above" : 10240,
                        "type" : "keyword"
                      },
                      "md5" : {
                        "normalizer" : "lowerascii",
                        "ignore_above" : 10240,
                        "type" : "keyword"
                      }
                    }
                  }
                }
              },
              "winlog" : {
                "type" : "object",
                "properties" : {
                  "computer_name" : {
                    "normalizer" : "lowerascii",
                    "ignore_above" : 1024,
                    "type" : "keyword"
                  },
                  "channel" : {
                    "normalizer" : "lowerascii",
                    "ignore_above" : 1024,
                    "type" : "keyword"
                  },
                  "event_data" : {
                    "type" : "object",
                    "properties" : {
                      "AttributeLDAPDisplayName" : {
                        "normalizer" : "lowerascii",
                        "ignore_above" : 1024,
                        "type" : "keyword"
                      },
                      "SignatureStatus" : {
                        "normalizer" : "lowerascii",
                        "ignore_above" : 1024,
                        "type" : "keyword"
                      },
                      "Company" : {
                        "normalizer" : "lowerascii",
                        "ignore_above" : 1024,
                        "type" : "keyword"
                      },
                      "ProcessName" : {
                        "normalizer" : "lowerascii",
                        "ignore_above" : 1024,
                        "type" : "keyword"
                      },
                      "LogonGuid" : {
                        "normalizer" : "lowerascii",
                        "ignore_above" : 1024,
                        "type" : "keyword"
                      },
                      "OriginalFileName" : {
                        "normalizer" : "lowerascii",
                        "ignore_above" : 1024,
                        "type" : "keyword"
                      },
                      "EventType" : {
                        "normalizer" : "lowerascii",
                        "ignore_above" : 1024,
                        "type" : "keyword"
                      },
                      "IntegrityLevel" : {
                        "normalizer" : "lowerascii",
                        "ignore_above" : 1024,
                        "type" : "keyword"
                      },
                      "TargetSid" : {
                        "normalizer" : "lowerascii",
                        "ignore_above" : 1024,
                        "type" : "keyword"
                      },
                      "Product" : {
                        "normalizer" : "lowerascii",
                        "ignore_above" : 1024,
                        "type" : "keyword"
                      },
                      "ObjectValueName" : {
                        "normalizer" : "lowerascii",
                        "ignore_above" : 1024,
                        "type" : "keyword"
                      },
                      "LmPackageName" : {
                        "normalizer" : "lowerascii",
                        "ignore_above" : 1024,
                        "type" : "keyword"
                      },
                      "TargetLogonGuid" : {
                        "normalizer" : "lowerascii",
                        "ignore_above" : 1024,
                        "type" : "keyword"
                      },
                      "UserSid" : {
                        "normalizer" : "lowerascii",
                        "ignore_above" : 1024,
                        "type" : "keyword"
                      },
                      "TicketEncryptionType" : {
                        "normalizer" : "lowerascii",
                        "ignore_above" : 1024,
                        "type" : "keyword"
                      },
                      "Version" : {
                        "ignore_above" : 1024,
                        "type" : "keyword"
                      },
                      "FileVersion" : {
                        "normalizer" : "lowerascii",
                        "ignore_above" : 1024,
                        "type" : "keyword"
                      },
                      "TicketOptions" : {
                        "normalizer" : "lowerascii",
                        "ignore_above" : 1024,
                        "type" : "keyword"
                      },
                      "CallTrace" : {
                        "normalizer" : "lowerascii",
                        "type" : "keyword"
                      },
                      "AllowedToDelegateTo" : {
                        "normalizer" : "lowerascii",
                        "ignore_above" : 1024,
                        "type" : "keyword"
                      },
                      "Status" : {
                        "normalizer" : "lowerascii",
                        "ignore_above" : 1024,
                        "type" : "keyword"
                      },
                      "SamAccountName" : {
                        "normalizer" : "lowerascii",
                        "ignore_above" : 1024,
                        "type" : "keyword"
                      },
                      "GrantedAccess" : {
                        "normalizer" : "lowerascii",
                        "ignore_above" : 1024,
                        "type" : "keyword"
                      },
                      "Signed" : {
                        "normalizer" : "lowerascii",
                        "ignore_above" : 1024,
                        "type" : "keyword"
                      },
                      "NewProcessName" : {
                        "normalizer" : "lowerascii",
                        "ignore_above" : 1024,
                        "type" : "keyword"
                      },
                      "TargetInfo" : {
                        "normalizer" : "lowerascii",
                        "ignore_above" : 1024,
                        "type" : "keyword"
                      },
                      "Details" : {
                        "normalizer" : "lowerascii",
                        "ignore_above" : 1024,
                        "type" : "keyword"
                      },
                      "ServiceName" : {
                        "normalizer" : "lowerascii",
                        "ignore_above" : 1024,
                        "type" : "keyword"
                      },
                      "State" : {
                        "normalizer" : "lowerascii",
                        "ignore_above" : 1024,
                        "type" : "keyword"
                      },
                      "ServiceVersion" : {
                        "normalizer" : "lowerascii",
                        "ignore_above" : 1024,
                        "type" : "keyword"
                      },
                      "ImpersonationLevel" : {
                        "normalizer" : "lowerascii",
                        "ignore_above" : 1024,
                        "type" : "keyword"
                      },
                      "MemberName" : {
                        "normalizer" : "lowerascii",
                        "ignore_above" : 1024,
                        "type" : "keyword"
                      },
                      "TargetUserName" : {
                        "normalizer" : "lowerascii",
                        "ignore_above" : 1024,
                        "type" : "keyword"
                      },
                      "SubjectUserSid" : {
                        "normalizer" : "lowerascii",
                        "ignore_above" : 1024,
                        "type" : "keyword"
                      },
                      "TargetUserSid" : {
                        "normalizer" : "lowerascii",
                        "ignore_above" : 1024,
                        "type" : "keyword"
                      },
                      "Description" : {
                        "normalizer" : "lowerascii",
                        "ignore_above" : 1024,
                        "type" : "keyword"
                      },
                      "ShutdownActionType" : {
                        "normalizer" : "lowerascii",
                        "ignore_above" : 1024,
                        "type" : "keyword"
                      },
                      "TerminalSessionId" : {
                        "normalizer" : "lowerascii",
                        "ignore_above" : 1024,
                        "type" : "keyword"
                      },
                      "MemberSid" : {
                        "normalizer" : "lowerascii",
                        "ignore_above" : 1024,
                        "type" : "keyword"
                      },
                      "DwordVal" : {
                        "normalizer" : "lowerascii",
                        "ignore_above" : 1024,
                        "type" : "keyword"
                      },
                      "DriverName" : {
                        "normalizer" : "lowerascii",
                        "ignore_above" : 1024,
                        "type" : "keyword"
                      },
                      "ScriptBlockText" : {
                        "normalizer" : "lowerascii",
                        "ignore_above" : 1024,
                        "type" : "keyword"
                      },
                      "OldSchemeGuid" : {
                        "normalizer" : "lowerascii",
                        "ignore_above" : 1024,
                        "type" : "keyword"
                      },
                      "Properties" : {
                        "normalizer" : "lowerascii",
                        "ignore_above" : 1024,
                        "type" : "keyword"
                      },
                      "Reason" : {
                        "normalizer" : "lowerascii",
                        "ignore_above" : 1024,
                        "type" : "keyword"
                      },
                      "ShutdownReason" : {
                        "normalizer" : "lowerascii",
                        "ignore_above" : 1024,
                        "type" : "keyword"
                      },
                      "TargetServerName" : {
                        "normalizer" : "lowerascii",
                        "ignore_above" : 1024,
                        "type" : "keyword"
                      },
                      "SubjectDomainName" : {
                        "normalizer" : "lowerascii",
                        "ignore_above" : 1024,
                        "type" : "keyword"
                      },
                      "TargetImage" : {
                        "normalizer" : "lowerascii",
                        "ignore_above" : 1024,
                        "type" : "keyword"
                      },
                      "LogonId" : {
                        "normalizer" : "lowerascii",
                        "ignore_above" : 1024,
                        "type" : "keyword"
                      },
                      "LogonProcessName" : {
                        "normalizer" : "lowerascii",
                        "ignore_above" : 1024,
                        "type" : "keyword"
                      },
                      "TargetDomainName" : {
                        "normalizer" : "lowerascii",
                        "ignore_above" : 1024,
                        "type" : "keyword"
                      },
                      "PrivilegeList" : {
                        "normalizer" : "lowerascii",
                        "ignore_above" : 1024,
                        "type" : "keyword"
                      },
                      "MajorVersion" : {
                        "normalizer" : "lowerascii",
                        "ignore_above" : 1024,
                        "type" : "keyword"
                      },
                      "Path" : {
                        "normalizer" : "lowerascii",
                        "ignore_above" : 1024,
                        "type" : "keyword"
                      },
                      "param7" : {
                        "normalizer" : "lowerascii",
                        "ignore_above" : 1024,
                        "type" : "keyword"
                      },
                      "param8" : {
                        "normalizer" : "lowerascii",
                        "ignore_above" : 1024,
                        "type" : "keyword"
                      },
                      "param5" : {
                        "normalizer" : "lowerascii",
                        "ignore_above" : 1024,
                        "type" : "keyword"
                      },
                      "ObjectClass" : {
                        "normalizer" : "lowerascii",
                        "ignore_above" : 1024,
                        "type" : "keyword"
                      },
                      "param6" : {
                        "normalizer" : "lowerascii",
                        "ignore_above" : 1024,
                        "type" : "keyword"
                      },
                      "DriveName" : {
                        "normalizer" : "lowerascii",
                        "ignore_above" : 1024,
                        "type" : "keyword"
                      },
                      "LogonType" : {
                        "normalizer" : "lowerascii",
                        "ignore_above" : 1024,
                        "type" : "keyword"
                      },
                      "TokenElevationType" : {
                        "normalizer" : "lowerascii",
                        "ignore_above" : 1024,
                        "type" : "keyword"
                      },
                      "ExtraInfo" : {
                        "normalizer" : "lowerascii",
                        "ignore_above" : 1024,
                        "type" : "keyword"
                      },
                      "StartModule" : {
                        "normalizer" : "lowerascii",
                        "ignore_above" : 1024,
                        "type" : "keyword"
                      },
                      "SubjectLogonId" : {
                        "normalizer" : "lowerascii",
                        "ignore_above" : 1024,
                        "type" : "keyword"
                      },
                      "param3" : {
                        "normalizer" : "lowerascii",
                        "ignore_above" : 1024,
                        "type" : "keyword"
                      },
                      "ProcessPath" : {
                        "normalizer" : "lowerascii",
                        "ignore_above" : 1024,
                        "type" : "keyword"
                      },
                      "param4" : {
                        "normalizer" : "lowerascii",
                        "ignore_above" : 1024,
                        "type" : "keyword"
                      },
                      "param1" : {
                        "normalizer" : "lowerascii",
                        "ignore_above" : 1024,
                        "type" : "keyword"
                      },
                      "ObjectName" : {
                        "normalizer" : "lowerascii",
                        "ignore_above" : 1024,
                        "type" : "keyword"
                      },
                      "param2" : {
                        "normalizer" : "lowerascii",
                        "ignore_above" : 1024,
                        "type" : "keyword"
                      },
                      "TargetLogonId" : {
                        "normalizer" : "lowerascii",
                        "ignore_above" : 1024,
                        "type" : "keyword"
                      },
                      "Workstation" : {
                        "normalizer" : "lowerascii",
                        "ignore_above" : 1024,
                        "type" : "keyword"
                      },
                      "SubjectUserName" : {
                        "normalizer" : "lowerascii",
                        "ignore_above" : 1024,
                        "type" : "keyword"
                      },
                      "FailureName" : {
                        "normalizer" : "lowerascii",
                        "ignore_above" : 1024,
                        "type" : "keyword"
                      },
                      "NewSchemeGuid" : {
                        "normalizer" : "lowerascii",
                        "ignore_above" : 1024,
                        "type" : "keyword"
                      },
                      "Signature" : {
                        "normalizer" : "lowerascii",
                        "ignore_above" : 1024,
                        "type" : "keyword"
                      },
                      "AuthenticationPackageName" : {
                        "normalizer" : "lowerascii",
                        "ignore_above" : 1024,
                        "type" : "keyword"
                      },
                      "DeviceName" : {
                        "normalizer" : "lowerascii",
                        "ignore_above" : 1024,
                        "type" : "keyword"
                      }
                    }
                  },
                  "provider_name" : {
                    "normalizer" : "lowerascii",
                    "ignore_above" : 1024,
                    "type" : "keyword"
                  },
                  "user" : {
                    "type" : "object",
                    "properties" : {
                      "identifier" : {
                        "normalizer" : "lowerascii",
                        "ignore_above" : 1024,
                        "type" : "keyword"
                      },
                      "domain" : {
                        "normalizer" : "lowerascii",
                        "ignore_above" : 1024,
                        "type" : "keyword"
                      },
                      "name" : {
                        "normalizer" : "lowerascii",
                        "ignore_above" : 1024,
                        "type" : "keyword"
                      },
                      "type" : {
                        "normalizer" : "lowerascii",
                        "ignore_above" : 1024,
                        "type" : "keyword"
                      }
                    }
                  }
                }
              },
              "rule" : {
                "type" : "object",
                "properties" : {
                  "reference" : {
                    "ignore_above" : 1024,
                    "type" : "keyword"
                  },
                  "license" : {
                    "ignore_above" : 1024,
                    "type" : "keyword"
                  },
                  "author" : {
                    "ignore_above" : 1024,
                    "type" : "keyword"
                  },
                  "name" : {
                    "ignore_above" : 1024,
                    "type" : "keyword"
                  },
                  "ruleset" : {
                    "ignore_above" : 1024,
                    "type" : "keyword"
                  },
                  "description" : {
                    "ignore_above" : 1024,
                    "type" : "keyword"
                  },
                  "id" : {
                    "ignore_above" : 1024,
                    "type" : "keyword"
                  },
                  "category" : {
                    "ignore_above" : 1024,
                    "type" : "keyword"
                  },
                  "uuid" : {
                    "ignore_above" : 1024,
                    "type" : "keyword"
                  },
                  "version" : {
                    "ignore_above" : 1024,
                    "type" : "keyword"
                  }
                }
              },
              "source" : {
                "type" : "object",
                "properties" : {
                  "registered_domain" : {
                    "normalizer" : "lowerascii",
                    "ignore_above" : 1024,
                    "type" : "keyword"
                  },
                  "top_level_domain" : {
                    "normalizer" : "lowerascii",
                    "ignore_above" : 1024,
                    "type" : "keyword"
                  },
                  "domain" : {
                    "normalizer" : "lowerascii",
                    "ignore_above" : 1024,
                    "type" : "keyword"
                  },
                  "ip" : {
                    "type" : "ip"
                  },
                  "subdomain" : {
                    "normalizer" : "lowerascii",
                    "ignore_above" : 1024,
                    "type" : "keyword"
                  },
                  "user" : {
                    "type" : "object",
                    "properties" : {
                      "full_name" : {
                        "ignore_above" : 1024,
                        "type" : "keyword",
                        "fields" : {
                          "text" : {
                            "norms" : false,
                            "type" : "text"
                          }
                        }
                      },
                      "domain" : {
                        "ignore_above" : 1024,
                        "type" : "keyword"
                      },
                      "roles" : {
                        "ignore_above" : 1024,
                        "type" : "keyword"
                      },
                      "name" : {
                        "ignore_above" : 1024,
                        "type" : "keyword",
                        "fields" : {
                          "text" : {
                            "norms" : false,
                            "type" : "text"
                          }
                        }
                      },
                      "id" : {
                        "ignore_above" : 1024,
                        "type" : "keyword"
                      },
                      "email" : {
                        "ignore_above" : 1024,
                        "type" : "keyword"
                      },
                      "hash" : {
                        "ignore_above" : 1024,
                        "type" : "keyword"
                      },
                      "group" : {
                        "type" : "object",
                        "properties" : {
                          "domain" : {
                            "ignore_above" : 1024,
                            "type" : "keyword"
                          },
                          "name" : {
                            "ignore_above" : 1024,
                            "type" : "keyword"
                          },
                          "id" : {
                            "ignore_above" : 1024,
                            "type" : "keyword"
                          }
                        }
                      }
                    }
                  }
                }
              },
              "thread" : {
                "type" : "nested",
                "properties" : {
                  "start" : {
                    "type" : "nested",
                    "properties" : {
                      "module" : {
                        "eager_global_ordinals" : false,
                        "normalizer" : "lowerascii",
                        "norms" : false,
                        "index" : true,
                        "store" : false,
                        "type" : "keyword",
                        "split_queries_on_whitespace" : false,
                        "index_options" : "docs",
                        "doc_values" : true
                      }
                    }
                  }
                }
              },
              "url" : {
                "type" : "object",
                "properties" : {
                  "path" : {
                    "normalizer" : "lowerascii",
                    "ignore_above" : 1024,
                    "type" : "keyword"
                  },
                  "registered_domain" : {
                    "normalizer" : "lowerascii",
                    "ignore_above" : 1024,
                    "type" : "keyword"
                  },
                  "original" : {
                    "normalizer" : "lowerascii",
                    "ignore_above" : 1024,
                    "type" : "keyword",
                    "fields" : {
                      "text" : {
                        "norms" : false,
                        "type" : "text"
                      }
                    }
                  },
                  "top_level_domain" : {
                    "normalizer" : "lowerascii",
                    "ignore_above" : 1024,
                    "type" : "keyword"
                  },
                  "domain" : {
                    "normalizer" : "lowerascii",
                    "ignore_above" : 1024,
                    "type" : "keyword"
                  },
                  "query" : {
                    "normalizer" : "lowerascii",
                    "ignore_above" : 1024,
                    "type" : "keyword"
                  },
                  "subdomain" : {
                    "normalizer" : "lowerascii",
                    "ignore_above" : 1024,
                    "type" : "keyword"
                  },
                  "full" : {
                    "normalizer" : "lowerascii",
                    "ignore_above" : 1024,
                    "type" : "keyword",
                    "fields" : {
                      "text" : {
                        "norms" : false,
                        "type" : "text"
                      }
                    }
                  },
                  "username" : {
                    "normalizer" : "lowerascii",
                    "ignore_above" : 1024,
                    "type" : "keyword"
                  }
                }
              },
              "network" : {
                "type" : "object",
                "properties" : {
                  "community_id" : {
                    "normalizer" : "lowerascii",
                    "ignore_above" : 1024,
                    "type" : "keyword"
                  },
                  "direction" : {
                    "normalizer" : "lowerascii",
                    "ignore_above" : 1024,
                    "type" : "keyword"
                  }
                }
              },
              "target" : {
                "type" : "nested",
                "properties" : {
                  "process" : {
                    "type" : "nested",
                    "properties" : {
                      "path" : {
                        "eager_global_ordinals" : false,
                        "normalizer" : "lowerascii",
                        "norms" : false,
                        "index" : true,
                        "store" : false,
                        "type" : "keyword",
                        "split_queries_on_whitespace" : false,
                        "index_options" : "docs",
                        "doc_values" : true
                      }
                    }
                  }
                }
              },
              "observer" : {
                "type" : "object",
                "properties" : {
                  "product" : {
                    "ignore_above" : 1024,
                    "type" : "keyword"
                  },
                  "os" : {
                    "type" : "object",
                    "properties" : {
                      "kernel" : {
                        "ignore_above" : 1024,
                        "type" : "keyword"
                      },
                      "name" : {
                        "ignore_above" : 1024,
                        "type" : "keyword",
                        "fields" : {
                          "text" : {
                            "norms" : false,
                            "type" : "text"
                          }
                        }
                      },
                      "family" : {
                        "ignore_above" : 1024,
                        "type" : "keyword"
                      },
                      "version" : {
                        "ignore_above" : 1024,
                        "type" : "keyword"
                      },
                      "platform" : {
                        "ignore_above" : 1024,
                        "type" : "keyword"
                      },
                      "full" : {
                        "ignore_above" : 1024,
                        "type" : "keyword",
                        "fields" : {
                          "text" : {
                            "norms" : false,
                            "type" : "text"
                          }
                        }
                      }
                    }
                  },
                  "ip" : {
                    "type" : "ip"
                  },
                  "serial_number" : {
                    "ignore_above" : 1024,
                    "type" : "keyword"
                  },
                  "type" : {
                    "ignore_above" : 1024,
                    "type" : "keyword"
                  },
                  "version" : {
                    "ignore_above" : 1024,
                    "type" : "keyword"
                  },
                  "mac" : {
                    "ignore_above" : 1024,
                    "type" : "keyword"
                  },
                  "egress" : {
                    "type" : "object",
                    "properties" : {
                      "vlan" : {
                        "type" : "object",
                        "properties" : {
                          "name" : {
                            "ignore_above" : 1024,
                            "type" : "keyword"
                          },
                          "id" : {
                            "ignore_above" : 1024,
                            "type" : "keyword"
                          }
                        }
                      },
                      "zone" : {
                        "ignore_above" : 1024,
                        "type" : "keyword"
                      },
                      "interface" : {
                        "type" : "object",
                        "properties" : {
                          "name" : {
                            "ignore_above" : 1024,
                            "type" : "keyword"
                          },
                          "alias" : {
                            "ignore_above" : 1024,
                            "type" : "keyword"
                          },
                          "id" : {
                            "ignore_above" : 1024,
                            "type" : "keyword"
                          }
                        }
                      }
                    }
                  },
                  "geo" : {
                    "type" : "object",
                    "properties" : {
                      "continent_name" : {
                        "ignore_above" : 1024,
                        "type" : "keyword"
                      },
                      "region_iso_code" : {
                        "ignore_above" : 1024,
                        "type" : "keyword"
                      },
                      "city_name" : {
                        "ignore_above" : 1024,
                        "type" : "keyword"
                      },
                      "country_iso_code" : {
                        "ignore_above" : 1024,
                        "type" : "keyword"
                      },
                      "country_name" : {
                        "ignore_above" : 1024,
                        "type" : "keyword"
                      },
                      "name" : {
                        "ignore_above" : 1024,
                        "type" : "keyword"
                      },
                      "location" : {
                        "type" : "geo_point"
                      },
                      "region_name" : {
                        "ignore_above" : 1024,
                        "type" : "keyword"
                      }
                    }
                  },
                  "ingress" : {
                    "type" : "object",
                    "properties" : {
                      "vlan" : {
                        "type" : "object",
                        "properties" : {
                          "name" : {
                            "ignore_above" : 1024,
                            "type" : "keyword"
                          },
                          "id" : {
                            "ignore_above" : 1024,
                            "type" : "keyword"
                          }
                        }
                      },
                      "zone" : {
                        "ignore_above" : 1024,
                        "type" : "keyword"
                      },
                      "interface" : {
                        "type" : "object",
                        "properties" : {
                          "name" : {
                            "ignore_above" : 1024,
                            "type" : "keyword"
                          },
                          "alias" : {
                            "ignore_above" : 1024,
                            "type" : "keyword"
                          },
                          "id" : {
                            "ignore_above" : 1024,
                            "type" : "keyword"
                          }
                        }
                      }
                    }
                  },
                  "hostname" : {
                    "ignore_above" : 1024,
                    "type" : "keyword"
                  },
                  "vendor" : {
                    "ignore_above" : 1024,
                    "type" : "keyword"
                  },
                  "name" : {
                    "ignore_above" : 1024,
                    "type" : "keyword"
                  }
                }
              },
              "file" : {
                "type" : "object",
                "properties" : {
                  "path" : {
                    "normalizer" : "lowerascii",
                    "ignore_above" : 1024,
                    "type" : "keyword",
                    "fields" : {
                      "text" : {
                        "norms" : false,
                        "type" : "text"
                      }
                    }
                  },
                  "pe" : {
                    "type" : "object",
                    "properties" : {
                      "file_version" : {
                        "normalizer" : "lowerascii",
                        "ignore_above" : 1024,
                        "type" : "keyword"
                      },
                      "product" : {
                        "normalizer" : "lowerascii",
                        "ignore_above" : 1024,
                        "type" : "keyword"
                      },
                      "imphash" : {
                        "normalizer" : "lowerascii",
                        "ignore_above" : 1024,
                        "type" : "keyword"
                      },
                      "description" : {
                        "normalizer" : "lowerascii",
                        "ignore_above" : 1024,
                        "type" : "keyword"
                      },
                      "company" : {
                        "normalizer" : "lowerascii",
                        "ignore_above" : 1024,
                        "type" : "keyword"
                      },
                      "original_file_name" : {
                        "normalizer" : "lowerascii",
                        "ignore_above" : 1024,
                        "type" : "keyword"
                      },
                      "architecture" : {
                        "ignore_above" : 1024,
                        "type" : "keyword"
                      }
                    }
                  },
                  "name" : {
                    "normalizer" : "lowerascii",
                    "ignore_above" : 1024,
                    "type" : "keyword"
                  }
                }
              },
              "related" : {
                "type" : "object",
                "properties" : {
                  "user" : {
                    "normalizer" : "lowerascii",
                    "ignore_above" : 1024,
                    "type" : "keyword"
                  },
                  "hash" : {
                    "normalizer" : "lowerascii",
                    "ignore_above" : 1024,
                    "type" : "keyword"
                  }
                }
              },
              "host" : {
                "type" : "object",
                "properties" : {
                  "hostname" : {
                    "normalizer" : "lowerascii",
                    "ignore_above" : 1024,
                    "type" : "keyword"
                  },
                  "name" : {
                    "normalizer" : "lowerascii",
                    "ignore_above" : 1024,
                    "type" : "keyword"
                  },
                  "user" : {
                    "type" : "object",
                    "properties" : {
                      "full_name" : {
                        "normalizer" : "lowerascii",
                        "ignore_above" : 1024,
                        "type" : "keyword",
                        "fields" : {
                          "text" : {
                            "norms" : false,
                            "type" : "text"
                          }
                        }
                      },
                      "domain" : {
                        "normalizer" : "lowerascii",
                        "ignore_above" : 1024,
                        "type" : "keyword"
                      },
                      "roles" : {
                        "normalizer" : "lowerascii",
                        "ignore_above" : 1024,
                        "type" : "keyword"
                      },
                      "name" : {
                        "normalizer" : "lowerascii",
                        "ignore_above" : 1024,
                        "type" : "keyword",
                        "fields" : {
                          "text" : {
                            "norms" : false,
                            "type" : "text"
                          }
                        }
                      },
                      "email" : {
                        "normalizer" : "lowerascii",
                        "ignore_above" : 1024,
                        "type" : "keyword"
                      },
                      "hash" : {
                        "normalizer" : "lowerascii",
                        "ignore_above" : 1024,
                        "type" : "keyword"
                      },
                      "group" : {
                        "type" : "object",
                        "properties" : {
                          "domain" : {
                            "normalizer" : "lowerascii",
                            "ignore_above" : 1024,
                            "type" : "keyword"
                          },
                          "name" : {
                            "normalizer" : "lowerascii",
                            "ignore_above" : 1024,
                            "type" : "keyword"
                          }
                        }
                      }
                    }
                  }
                }
              },
              "event" : {
                "type" : "object",
                "properties" : {
                  "code" : {
                    "eager_global_ordinals" : false,
                    "normalizer" : "lowerascii",
                    "norms" : false,
                    "index" : true,
                    "store" : false,
                    "type" : "keyword",
                    "split_queries_on_whitespace" : false,
                    "index_options" : "docs",
                    "doc_values" : true
                  },
                  "provider" : {
                    "normalizer" : "lowerascii",
                    "type" : "keyword"
                  },
                  "module" : {
                    "normalizer" : "lowerascii",
                    "type" : "keyword"
                  }
                }
              },
              "user" : {
                "type" : "object",
                "properties" : {
                  "full_name" : {
                    "normalizer" : "lowerascii",
                    "ignore_above" : 1024,
                    "type" : "keyword",
                    "fields" : {
                      "text" : {
                        "norms" : false,
                        "type" : "text"
                      }
                    }
                  },
                  "domain" : {
                    "normalizer" : "lowerascii",
                    "ignore_above" : 1024,
                    "type" : "keyword"
                  },
                  "roles" : {
                    "normalizer" : "lowerascii",
                    "ignore_above" : 1024,
                    "type" : "keyword"
                  },
                  "name" : {
                    "normalizer" : "lowerascii",
                    "ignore_above" : 1024,
                    "type" : "keyword",
                    "fields" : {
                      "text" : {
                        "norms" : false,
                        "type" : "text"
                      }
                    }
                  },
                  "id" : {
                    "normalizer" : "lowerascii",
                    "ignore_above" : 1024,
                    "type" : "keyword"
                  },
                  "email" : {
                    "normalizer" : "lowerascii",
                    "ignore_above" : 1024,
                    "type" : "keyword"
                  },
                  "hash" : {
                    "normalizer" : "lowerascii",
                    "ignore_above" : 1024,
                    "type" : "keyword"
                  },
                  "group" : {
                    "type" : "object",
                    "properties" : {
                      "domain" : {
                        "normalizer" : "lowerascii",
                        "ignore_above" : 1024,
                        "type" : "keyword"
                      },
                      "name" : {
                        "normalizer" : "lowerascii",
                        "ignore_above" : 1024,
                        "type" : "keyword"
                      }
                    }
                  }
                }
              },
              "hash" : {
                "type" : "object",
                "properties" : {
                  "sha1" : {
                    "normalizer" : "lowerascii",
                    "ignore_above" : 1024,
                    "type" : "keyword"
                  },
                  "imphash" : {
                    "normalizer" : "lowerascii",
                    "ignore_above" : 1024,
                    "type" : "keyword"
                  },
                  "sha256" : {
                    "normalizer" : "lowerascii",
                    "ignore_above" : 1024,
                    "type" : "keyword"
                  },
                  "sha512" : {
                    "normalizer" : "lowerascii",
                    "ignore_above" : 1024,
                    "type" : "keyword"
                  },
                  "md5" : {
                    "normalizer" : "lowerascii",
                    "ignore_above" : 1024,
                    "type" : "keyword"
                  }
                }
              },
              "user_agent" : {
                "type" : "object",
                "properties" : {
                  "original" : {
                    "normalizer" : "lowerascii",
                    "ignore_above" : 1024,
                    "type" : "keyword",
                    "fields" : {
                      "text" : {
                        "norms" : false,
                        "type" : "text"
                      }
                    }
                  },
                  "os" : {
                    "type" : "object",
                    "properties" : {
                      "kernel" : {
                        "normalizer" : "lowerascii",
                        "ignore_above" : 1024,
                        "type" : "keyword"
                      },
                      "name" : {
                        "normalizer" : "lowerascii",
                        "ignore_above" : 1024,
                        "type" : "keyword",
                        "fields" : {
                          "text" : {
                            "norms" : false,
                            "type" : "text"
                          }
                        }
                      },
                      "family" : {
                        "normalizer" : "lowerascii",
                        "ignore_above" : 1024,
                        "type" : "keyword"
                      },
                      "version" : {
                        "normalizer" : "lowerascii",
                        "ignore_above" : 1024,
                        "type" : "keyword"
                      },
                      "platform" : {
                        "normalizer" : "lowerascii",
                        "ignore_above" : 1024,
                        "type" : "keyword"
                      },
                      "full" : {
                        "normalizer" : "lowerascii",
                        "ignore_above" : 1024,
                        "type" : "keyword",
                        "fields" : {
                          "text" : {
                            "norms" : false,
                            "type" : "text"
                          }
                        }
                      }
                    }
                  },
                  "name" : {
                    "normalizer" : "lowerascii",
                    "ignore_above" : 1024,
                    "type" : "keyword"
                  },
                  "device" : {
                    "type" : "object",
                    "properties" : {
                      "name" : {
                        "normalizer" : "lowerascii",
                        "ignore_above" : 1024,
                        "type" : "keyword"
                      }
                    }
                  }
                }
              },
              "group" : {
                "type" : "object",
                "properties" : {
                  "domain" : {
                    "normalizer" : "lowerascii",
                    "ignore_above" : 1024,
                    "type" : "keyword"
                  },
                  "name" : {
                    "normalizer" : "lowerascii",
                    "ignore_above" : 1024,
                    "type" : "keyword"
                  }
                }
              }
            }
          }
        },
        "version" : 20210728,
        "_meta" : {
          "description" : "generated by winlogbeat-7.11.0"
        }
      }
